<svg xmlns="http://www.w3.org/2000/svg" width="104.258" height="119.152" viewBox="0 0 104.258 119.152">
  <path id="address-book-regular" d="M101.466,37.235a2.8,2.8,0,0,0,2.793-2.793V25.134a2.8,2.8,0,0,0-2.793-2.793H96.811V11.171A11.173,11.173,0,0,0,85.641,0H11.171A11.173,11.173,0,0,0,0,11.171v96.811a11.173,11.173,0,0,0,11.171,11.171h74.47a11.173,11.173,0,0,0,11.171-11.171V96.811h4.654a2.8,2.8,0,0,0,2.793-2.793V84.71a2.8,2.8,0,0,0-2.793-2.793H96.811V67.023h4.654a2.8,2.8,0,0,0,2.793-2.793V54.922a2.8,2.8,0,0,0-2.793-2.793H96.811V37.235ZM85.641,107.982H11.171V11.171h74.47ZM48.406,59.576A14.894,14.894,0,1,0,33.512,44.682,14.908,14.908,0,0,0,48.406,59.576ZM27.554,89.364h41.7c2.886,0,5.213-2,5.213-4.468V80.428c0-7.4-7-13.4-15.639-13.4-2.513,0-4.352,1.862-10.426,1.862-6.26,0-7.773-1.862-10.426-1.862-8.634,0-15.639,6-15.639,13.4V84.9C22.341,87.363,24.668,89.364,27.554,89.364Z" fill="#e32b06"/>
</svg>
